info face=font size=24 bold=0 italic=0 charset= unicode= stretchH=100 smooth=1 aa=1 padding=2,2,2,2 spacing=0,0 outline=0
common lineHeight=26 base=18 scaleW=168 scaleH=20 pages=1 packed=0
page id=0 file="font001ba.png"
chars count=15
char id=48 x=0 y=0 width=16 height=24 xoffset=1 yoffset=0 xadvance=16 page=0 chnl=0
char id=49 x=16 y=0 width=16 height=24 xoffset=1 yoffset=0 xadvance=16 page=0 chnl=0
char id=50 x=32 y=0 width=16 height=24 xoffset=1 yoffset=0 xadvance=16 page=0 chnl=0
char id=51 x=48 y=0 width=16 height=24 xoffset=1 yoffset=0 xadvance=16 page=0 chnl=0
char id=52 x=64 y=0 width=16 height=24 xoffset=1 yoffset=0 xadvance=16 page=0 chnl=0
char id=53 x=80 y=0 width=16 height=24 xoffset=1 yoffset=0 xadvance=16 page=0 chnl=0
char id=54 x=96 y=0 width=16 height=24 xoffset=1 yoffset=0 xadvance=16 page=0 chnl=0
char id=55 x=112 y=0 width=16 height=24 xoffset=1 yoffset=0 xadvance=16 page=0 chnl=0
char id=56 x=128 y=0 width=16 height=24 xoffset=1 yoffset=0 xadvance=16 page=0 chnl=0
char id=57 x=144 y=0 width=16 height=24 xoffset=1 yoffset=0 xadvance=16 page=0 chnl=0
char id=44 x=166 y=0 width=16 height=24 xoffset=1 yoffset=0 xadvance=6 page=0 chnl=0
char id=97 x=176 y=0 width=16 height=24 xoffset=1 yoffset=0 xadvance=16 page=0 chnl=0
char id=98 x=198 y=0 width=16 height=24 xoffset=1 yoffset=0 xadvance=6 page=0 chnl=0
char id=46 x=214 y=0 width=16 height=24 xoffset=1 yoffset=0 xadvance=6 page=0 chnl=0
char id=99 x=230 y=0 width=16 height=24 xoffset=1 yoffset=0 xadvance=6 page=0 chnl=0
char id=75 x=240 y=0 width=16 height=24 xoffset=1 yoffset=0 xadvance=16 page=0 chnl=0
kernings count=1
kerning first=49 second=49 amount=-2