{
  "__type__": "cc.AnimationClip",
  "_name": "tweenLabel",
  "_objFlags": 0,
  "_native": "",
  "_duration": 3.3333333333333335,
  "sample": 60,
  "speed": 1,
  "wrapMode": 2,
  "curveData": {
    "paths": {
      "LabelL": {
        "props": {
          "y": [
            {
              "frame": 0,
              "value": 0
            },
            {
              "frame": 0.4166666666666667,
              "value": 50
            },
            {
              "frame": 0.8333333333333334,
              "value": 0
            }
          ]
        }
      },
      "LabelO": {
        "props": {
          "y": [
            {
              "frame": 0.8333333333333334,
              "value": 0
            },
            {
              "frame": 1.25,
              "value": 50
            },
            {
              "frame": 1.6666666666666667,
              "value": 0
            }
          ]
        }
      },
      "LabelA": {
        "props": {
          "y": [
            {
              "frame": 1.6666666666666667,
              "value": 0
            },
            {
              "frame": 2.0833333333333335,
              "value": 50
            },
            {
              "frame": 2.5,
              "value": 0
            }
          ]
        }
      },
      "LabelD": {
        "props": {
          "y": [
            {
              "frame": 2.5,
              "value": 0
            },
            {
              "frame": 2.9166666666666665,
              "value": 50
            },
            {
              "frame": 3.3333333333333335,
              "value": 0
            }
          ]
        }
      }
    }
  },
  "events": []
}