info face=font size=42 bold=0 italic=0 charset= unicode= stretchH=100 smooth=1 aa=1 padding=2,2,2,2 spacing=0,0 outline=0
common lineHeight=42 base=28 scaleW=360 scaleH=42 pages=1 packed=0
page id=0 file="font002.png"
chars count=12
char id=48 x=0 y=0 width=28 height=42 xoffset=0 yoffset=0 xadvance=28 page=0 chnl=0
char id=49 x=30 y=0 width=28 height=42 xoffset=-4 yoffset=0 xadvance=22 page=0 chnl=0
char id=50 x=60 y=0 width=28 height=42 xoffset=0 yoffset=0 xadvance=28 page=0 chnl=0
char id=51 x=90 y=0 width=28 height=42 xoffset=0 yoffset=0 xadvance=28 page=0 chnl=0
char id=52 x=120 y=0 width=28 height=42 xoffset=0 yoffset=0 xadvance=28 page=0 chnl=0
char id=53 x=150 y=0 width=28 height=42 xoffset=0 yoffset=0 xadvance=28 page=0 chnl=0
char id=54 x=180 y=0 width=28 height=42 xoffset=0 yoffset=0 xadvance=28 page=0 chnl=0
char id=55 x=210 y=0 width=28 height=42 xoffset=0 yoffset=0 xadvance=28 page=0 chnl=0
char id=56 x=240 y=0 width=28 height=42 xoffset=0 yoffset=0 xadvance=28 page=0 chnl=0
char id=57 x=270 y=0 width=28 height=42 xoffset=0 yoffset=0 xadvance=28 page=0 chnl=0
char id=46 x=300 y=0 width=28 height=42 xoffset=-6 yoffset=2 xadvance=12 page=0 chnl=0
char id=44 x=330 y=0 width=28 height=42 xoffset=-8 yoffset=6 xadvance=12 page=0 chnl=0
kernings count=1
kerning first=48 second=48 amount=0